Date,Organisation,Name,Source,Summary,Link
10-Jan-2018,NSW Minerals Council,Stephen Galilee,Illawarry Mercury,NSWMC defends use of final voids,https://www.illawarramercury.com.au/story/5161187/environmental-groups-call-for-us-style-regulation-for-australian-mining/
13-Jan-2018,NSW Minerals Council,Stephen Galilee,Newcastle Herald,Stephen Galilee discusses new advertising campaign,https://www.theherald.com.au/story/5164728/mining-a-war-of-words-from-new-drone-video/
18-Feb-2018,NSW Minerals Council,Stephen Galilee,Submission,NSWMC argues proposed mining rehabilitation reform is overly prescriptive ,http://www.nswmining.com.au/NSWMining/media/NSW-Mining/180216-NSWMC-Submission-to-Improving-Mine-Rehabilitation-Discussion-Paper_FINAL.pdf
28-Feb-2018,NSW Minerals Council,Stephen Galilee,Newcastle Herald,Matt Canavan speaking at Hunter Coal Festival in April,https://www.theherald.com.au/story/5253640/matt-canavan-speaking-at-hunter-coal-festival-in-april/
12-Mar-2018,NSW Minerals Council,Stephen Galilee,Media release,Stephen Galilee claims strong demand for thermal coal in NSW in 2017,http://www.nswmining.com.au/menu/media/news/2018/march/latest-figures-confirm-strong-demand-for-nsw-therm
20-Mar-2018,NSW Minerals Council,Stephen Galilee,Media release,Stephen Galilee refers to increase in Hunter coal jobs,http://www.nswmining.com.au/menu/media/news/2018/march/over-one-thousand-new-coal-mining-jobs-for-the-hun
22-Mar-2018,NSW Minerals Council,Stephen Galilee,Daily Telegraph,Stephen Galilee attacks land use by renewables,https://www.dailytelegraph.com.au/news/opinion/lock-the-gate-alliance-pretends-to-care-about-local-landholders-but-only-when-it-suits-them/news-story/a317d0d3c7508798b977b269e58381ad
10-Apr-2018,NSW Minerals Council,Stephen Galilee,Muswellbrook Chronicle,Stephen Galilee tells industry conference that Liddell must be kept open,https://www.muswellbrookchronicle.com.au/story/5333752/theres-definite-cause-for-positivity-says-stephen-galilee/
11-Apr-2018,NSW Minerals Council,Stephen Galilee,Daily Telegraph,Stephen Galilee claims Liddell closure would drive up power bills by $500 p.a.,http://www.australianpowerproject.com.au/2018/04/11/liddell-power-station-closure-push-power-bills-500-year/
7-May-2018,NSW Minerals Council,Stephen Galilee,Lake Mac Today,Stephen Galilee states the future of coal mining cannot be understated,https://lakemactoday.com.au/2018/05/07/mining-big-business-in-the-hunter/
28-May-2018,NSW Minerals Council,Stephen Galilee,Hunter Business Review,Stephen Galilee welcomes increase of around 8.5% in mining jobs in Hunter region between December 2016 and 2017,http://www.hbrmag.com.au/article/read/over-1000-new-coal-mining-jobs-for-the-hunter-2753
31-May-2018,NSW Minerals Council,Stephen Galilee,ABC,"Stephen Galilee promotes Newcastle as coal export port, as plans for $5 billion T4 coal terminal scrapped",https://www.abc.net.au/news/2018-05-31/plans-for-five-billion-dollar-coal-loader-scrapped/9821890
4-Jun-2018,NSW Minerals Council,Stephen Galilee,Newcastle Herald,Stephen Galilee says coal is needed to meet energy demand,https://www.theherald.com.au/story/5441621/renewables-will-gut-coal-power-australias-energy-system/
6-Jun-2018,NSW Minerals Council,Stephen Galilee,Newcastle Herald,Stephen Galilee advocates for new coal fired power stations,https://www.theherald.com.au/story/5451487/global-coal-demand-will-secure-our-mining-future/
19-Jun-2018,NSW Minerals Council,Stephen Galilee,Newcastle Herald,Stephen Galilee says coal will remain important to the Hunter for decades,https://www.theherald.com.au/story/5473013/hunter-coal-in-strong-demand/
20-Jun-2018,NSW Minerals Council,Stephen Galilee,Lake Mac Today,Stephen Galilee calls for more mining jobs on back of report commissioned by MCA and COAL21Fund,https://lakemactoday.com.au/2018/06/20/more-jobs-on-the-back-of-strong-asian-demand-for-nsw-coal/
21-Jun-2018,NSW Minerals Council,Stephen Galilee,Daily Telegraph,"Stephen Galilee refers to Tomago Aluminium, advocates for new coal fired power stations",http://www.nswmining.com.au/menu/media/news/2018/june/nsw-is-missing-out-we-need-a-strategy-on-coal
25-Jun-2018,NSW Minerals Council,Stephen Galilee,2GB,Stephen Galilee advocates for new coal fired power stations,https://www.2gb.com/podcast/the-minerals-council-the-future-of-coal/
2-Jul-2018,NSW Minerals Council,Stephen Galilee,2GB,Stephen Galilee advocates for new coal fired power stations,https://www.2gb.com/alive-and-kicking-coal-set-to-become-our-largest-export/
24-Jul-2018,NSW Minerals Council,Stephen Galilee,Newcastle Herald,Stephen Galilee discusses growing demand for coal in Asia,https://www.theherald.com.au/story/5541399/hunter-coal-outlook-good-for-business/
26-Jul-2018,NSW Minerals Council,Stephen Galilee,Daily Telegraph,Stephen Galilee blames renewables for high power prices,https://www.dailytelegraph.com.au/news/opinion/has-australian-energy-policy-been-hijacked-by-anticoal-campaigners/news-story/2254bcf31af6fd7f2ab63149aaaf3c3f
27-Jul-2018,NSW Minerals Council,Stephen Galilee,Lithgow Mercury,Stephen Galilee says coal will support Lithgow for decades to come,https://www.lithgowmercury.com.au/story/5550647/spreading-economic-benefits/
27-Jul-2018,NSW Minerals Council,Stephen Galilee,Lithgow Mercury,Stephen Galilee says NSW should take advantage of growth in coal demand in Asia,https://www.lithgowmercury.com.au/story/5550665/opportunity-not-to-be-missed/
1-Aug-2018,NSW Minerals Council,Stephen Galilee,Daily Telegraph,Stephen Galilee argues in opinion article that Australia needs coal-fired power,http://www.nswmining.com.au/getmedia/11769a50-d22c-4d07-81d5-69207feb7e43/986597778
18-Aug-2018,NSW Minerals Council,Stephen Galilee,SMH,Stephen Galilee argues in opinion article that those arguing against new coal-fired power undermine energy policy in Australia,https://www.smh.com.au/politics/federal/it-s-time-for-politicians-to-put-the-national-interest-ahead-of-energy-ideology-20180816-p4zxu1.html
21-Sep-2018,NSW Minerals Council,Stephen Galilee,Media release,"NSWMC welcomes Resources 2030 report, recommending investment in the resources sector and reduced regulation",http://www.nswmining.com.au/menu/media/news/2018/september/nsw-minerals-council-welcomes-resources-2030-repor
25-Sep-2018,NSW Minerals Council,Stephen Galilee,Daily Telegraph,"Stephen Galilee claims Greens oppose public funding of hospitals, schools",https://www.dailytelegraph.com.au/news/opinion/its-not-just-mines-the-greens-are-against-its-schools-hospitals-emergency-services-and-nsw/news-story/bb2f7c67250ac52b46c73e76f1802f2b
1-Oct-2018,NSW Minerals Council,Stephen Galilee,Newcastle Herald,Stephen Galilee argues that coal must be included in global 'energy mix',https://www.theherald.com.au/story/5677455/coals-role-in-world-energy/
8-Oct-2018,NSW Minerals Council,Stephen Galilee,SMH,"NSWMC says coal has a 'very positive' future in NSW, amid release of IPCC report",https://www.smh.com.au/environment/climate-change/mining-sector-morrison-government-on-the-defensive-over-ipcc-report-20181008-p508ee.html
1-Nov-2018,NSW Minerals Council,Stephen Galilee,ABC,Stephen Galilee claims strong growth in thermal coal demand,https://www.abc.net.au/news/2018-11-01/coal-report-warns-of-grim-future-for-australian-thermal-coal/10452456
1-Nov-2018,NSW Minerals Council,Stephen Galilee,Australian Mining,"NSWMC claims there is a strong future for coal exports, despite contrary IEEFA forecasts ",https://www.australianmining.com.au/news/nsw-thermal-coal-remain-strong-2040/
1-Nov-2018,NSW Minerals Council,Stephen Galilee,Newcastle Herald,"Stephen Galilee criticises IEEFA for forecasting negative outlook for coal in NSW, implies it is ideologically motivated",https://www.theherald.com.au/story/5735221/rising-demand-drives-a-future-for-coal/
4-Nov-2018,NSW Minerals Council,Stephen Galilee,ABC,"Stephen Galilee says enforcing rehabilitation of older mines would be ""devastating""",https://www.abc.net.au/news/2018-11-05/coal-mine-rehabilitation-cost-could-hit-taxpayers/10463302
6-Nov-2018,NSW Minerals Council,Stephen Galilee,Newcastle Herald,Stephen Galilee stands by coal demand forecasts,https://www.theherald.com.au/story/5738540/coal-hard-facts-analysts-stand-by-report-after-nsw-minerals-council-criticism/
6-Nov-2018,NSW Minerals Council,Stephen Galilee,Mining Monthly,Stephen Galilee claims strong coal growth out to 2040,https://www.miningmonthly.com/investment/international-coal-news/1350392/shovelling-coal-the-old-way
11-Nov-2018,NSW Minerals Council,Stephen Galilee,Daily Telegraph,Stephen Galilee attacks 'rabid' anti-coal policy in opinion article,http://www.nswmining.com.au/menu/media/news/2018/december/opinion-rabid-anti-coal-policy-would-kill-nsw-econ
12-Nov-2018,NSW Minerals Council,Stephen Galilee,Media release,"Stephen Galilee states coal has a strong future in NSW, needs regulatory support",http://www.nswmining.com.au/menu/media/news/2018/november/international-energy-agency-world-energy-outlook-2
23-Nov-2018,NSW Minerals Council,Stephen Galilee,Daily Telegraph,Stephen Galilee criticises ALP's energy plan,https://www.dailytelegraph.com.au/news/opinion/stephen-galilee-shortens-energy-plan-risky-for-him-and-us/news-story/3a77ce39cb796765b87b396ece32661e
26-Nov-2018,NSW Minerals Council,Stephen Galilee,Media release,NSWMC research estimates investment value of 25 mining projects in NSW planning system,http://www.nswmining.com.au/menu/media/news/2018/november/mining-projects-in-the-planning-pipeline-worth-bil
28-Nov-2018,NSW Minerals Council,Stephen Galilee,Newcastle Herald,Stephen Galilee refutes article by University of Western Sydney academic about the urgency of transition away from coal,https://www.theherald.com.au/story/5778282/dont-miss-milestone-due-to-chaotic-arrival/
28-Nov-2018,NSW Minerals Council,Stephen Galilee,Australian Mining,"Stephen Galilee calls for new mining projects, and 'stable and certain policy... that supports the mining sector'",https://www.australianmining.com.au/news/up-and-coming-projects-worth-11bn-in-nsw/
10-Dec-2018,NSW Minerals Council,Stephen Galilee,Newcastle Herald,Stephen Galilee claims strong demand for coal in the Hunter,https://www.theherald.com.au/story/5802138/need-for-hunter-coal-to-remain-steady-for-decades/
10-Dec-2018,NSW Minerals Council,Stephen Galilee,Daily Telegraph,Stephen Galilee criticises Greens plans to phase out coal,https://www.dailytelegraph.com.au/news/opinion/greens-policies-would-kill-jobs-regional-communities-and-the-nsw-economy/news-story/a100e818c2b4f150856bd3b75a87d9e0
19-Dec-2018,NSW Minerals Council,,Media release,NSWMC claims net zero emissions by 2050 would lead to recession,http://www.nswmining.com.au/menu/media/news/2018/december/net-zero-emissions-target-puts-nsw-economy-and-job
19-Dec-2018,NSW Minerals Council,,Australian,NSWMC claims net zero emissions by 2050 would lead to recession,https://www.theaustralian.com.au/national-affairs/climate/nsw-ministers-energy-stunt-has-negative-effect/news-story/dd56a14c2568f577e9573fdfedb6cf78
19-Dec-2018,NSW Minerals Council,,Daily Telegraph,NSWMC claims net zero emissions by 2050 would lead to recession,https://www.dailytelegraph.com.au/news/nsw/nsw-push-for-emissions-target-could-cost-thousands-of-jobs/news-story/072b21b2eae43b21f1814403120413ba
20-Dec-2018,NSW Minerals Council,Stephen Galilee,Australian,Stephen Galilee claims NSW net zero emissions by 2050 would lead to recession,https://www.theaustralian.com.au/national-affairs/climate/climatepush-liberal-minister-don-harwins-coal-links/news-story/0ce8d75195d31a06d65ecf1b5070f33b
21-Dec-2018,NSW Minerals Council,Stephen Galilee,2GB,Stephen Galilee claims bright future for coal,https://www.2gb.com/coal-to-overtake-iron-ore-as-most-valuable-export/
28-Jan-2019,NSW Minerals Council,Stephen Galilee,Australian,"Stephen Galilee says ""we can determine who wins"" the NSW election",https://www.theaustralian.com.au/nation/politics/we-can-determine-who-wins-miners-poll-warning-to-parties/news-story/1be5ceed5189f715eeec71063dd18dc7
29-Jan-2019,NSW Minerals Council,,AFR,Refers to NSWMC donations in 2015 NSW election,https://www.afr.com/business/legal/election-boost-for-labor-as-high-court-rejects-nsw-donation-laws-20190129-h1alqm
31-Jan-2019,NSW Minerals Council,,SMH,NSWMC registers as third party ahead of NSW election,https://www.smh.com.au/national/nsw/nsw-must-compromise-on-political-ad-limits-20190130-p50umk.html
31-Jan-2019,NSW Minerals Council,Stephen Galilee,Daily Telegraph,Stephen Galilee criticises closure of Liddell coal fired power station,https://www.dailytelegraph.com.au/rendezview/dicey-power-game-could-leave-us-in-the-dark/news-story/19e5a452303cc0a52c5594b245affe5c
2-Feb-2019,NSW Minerals Council,Stephen Galilee,Daily Telegraph,Stephen Galilee claims more ambitious emissions targets would impact prices and jobs,https://www.dailytelegraph.com.au/news/nsw/powering-up-nsw-price-pain/news-story/a4539d56531614a4daa4d6a674c030cc
8-Feb-2019,NSW Minerals Council,Stephen Galilee,AFR,Stephen Galilee rejected the idea of the decision being a landmark in climate litigation,https://www.afr.com/news/landmark-decision-blocks-gloucester-resources-coal-mine-in-nsw-20190208-h1b0bo
8-Feb-2019,NSW Minerals Council,Stephen Galilee,SMH,Stephen Galilee rejected the idea of the decision being a landmark in climate litigation,https://www.smh.com.au/environment/climate-change/we-won-landmark-climate-ruling-as-nsw-court-rejects-coal-mine-20190207-p50wer.html
11-Feb-2019,NSW Minerals Council,Stephen Galilee,Mining Monthly,Stephen Galilee rejected the idea of the decision being a landmark in climate litigation,https://www.miningmonthly.com/sustainability/international-coal-news/1356124/gloucester-ruling-divides-opinion-on-mining-and-climate-change
11-Feb-2019,NSW Minerals Council,Stephen Galilee,Guardian,Stephen Galilee rejected the idea of the decision being a landmark in climate litigation,https://www.theguardian.com/australia-news/2019/feb/11/hunter-valley-coalmine-ruling-buoys-other-anti-mine-campaigners
16-Feb-2019,NSW Minerals Council,Stephen Galilee,SMH,"Stephen Galilee claims bright future for coal, support for new coal fired power stations",https://www.smh.com.au/environment/climate-change/nsw-government-projects-big-jump-in-coal-shipments-20190216-p50y8n.html
18-Feb-2019,NSW Minerals Council,Stephen Galilee,Muswellbrook Chronicle,Stephen Galilee defends anti-Greens advertising,https://www.muswellbrookchronicle.com.au/story/5960049/shut-down-would-cost-thousands-of-jobs-galilee/
18-Feb-2019,NSW Minerals Council,Stephen Galilee,FT,Stephen Galilee rejected the idea of the decision being a landmark in climate litigation,https://www.ft.com/content/d5a3034e-300b-11e9-8744-e7016697f225
21-Feb-2019,NSW Minerals Council,Stephen Galilee,Australian,Stephen Galilee criticises Richard Marles for talking down thermal coal industry,https://www.theaustralian.com.au/business/mining-energy/richard-marles-slammed-for-talking-down-thermal-coal-market/news-story/edb5dd3912cfb32f0cf13315f12fd72a
21-Feb-2019,NSW Minerals Council,Stephen Galilee,Newcastle Herald,"Stephen Galilee claims bright future for coal, despite Glencore announcement",https://www.theherald.com.au/story/5918349/glencore-cap-could-put-australian-coal-at-an-historic-turning-point/
11-Mar-2019,NSW Minerals Council,Stephen Galilee,2GB,Renewable energy should be supported by coal fired power ,https://www.2gb.com/economic-chaos-the-renewable-energy-threat/
11-Mar-2019,NSW Minerals Council,Stephen Galilee,2GB,NSWMC arranges 2GB to broadcast from inside coal mine,https://www.2gb.com/chris-smith-is-broadcasting-from-the-inside-a-working-coal-mine/
14-Mar-2019,NSW Minerals Council,Stephen Galilee,Daily Telegraph,"Stephen Galilee attacks Greens, claims NSW needs coal mining",https://www.dailytelegraph.com.au/news/opinion/a-strong-mining-sector-means-a-strong-nsw-giving-2-billion-a-year-in-royalty-taxes/news-story/c6aa9e71cf8d6a75dd13aba94e5ccc41
19-Mar-2019,NSW Minerals Council,Stephen Galilee,Newcastle Herald,Stephen Galilee cites IEA NPS as evidence for growth in coal demand,https://www.theherald.com.au/story/5959196/facts-back-optimistic-coal-outlook/
22-Mar-2019,NSW Minerals Council,,Guardian,NSWMC met with NSW government ministers 61 times in 4.5 years,https://www.theguardian.com/australia-news/2019/mar/22/mining-sector-met-nsw-ministers-almost-every-week-over-four-years
25-Mar-2019,NSW Minerals Council,Stephen Galilee,Daily Telegraph,Stephen Galilee rejects research showing Australia is a laggard on energy transition,https://www.dailytelegraph.com.au/news/nsw/australia-singled-out-for-resistance-to-move-from-coal-at-world-economic-forum/news-story/e01a1c0d29a7191475c6b5bb6cbd786b
27-Mar-2019,NSW Minerals Council,Stephen Galilee,SMH,Refers to NSWMC figures on royalties and employment from coal mining,https://www.smh.com.au/politics/federal/greens-lift-2030-renewable-target-to-100-per-cent-would-revive-carbon-price-20190327-p5182a.html
27-Mar-2019,NSW Minerals Council,Stephen Galilee,Australian Mining,Stephen Galilee claims growing demand for coal in Asia,https://www.australianmining.com.au/news/australia-registers-export-records-across-key-mining-states/
31-Mar-2019,NSW Minerals Council,Stephen Galilee,Northern Daily Leader,Stephen Galilee claims coal mining will form part of economy for foreseeable future,https://www.northerndailyleader.com.au/story/5982135/no-need-for-vickery-mine-extension-with-coal-on-the-decline/
1-Apr-2019,NSW Minerals Council,Stephen Galilee,Australian,Stephen Galilee stresses importance of coal industry,https://www.theaustralian.com.au/business/mining-energy/global-demand-growing-for-nsw-coal/news-story/73984d270dc7d0333964c7a958c5d436